{
    "titre"     :   "Basketmath",
    "consigne"  :   "Clique sur le panier où se trouve la bonne opération",
    "opt1"      :   "Nombre de questions : ",
    "opt2"      :   "Nombre d'essais : ",
    "label2"    :   ["un","deux"],
    "opt3"      :   "Temps pour réaliser l'exercice (en secondes)  : "
}