{
    "titre"     :   "La Muraille",
    "consigne"  :   "Il faut fermer la muraille avec le moins de blocs possible.",
	"rappel"	: 	"Ecris le nombre de blocs de chaque taille.<br>Utilise le moins de blocs possible:",
    "opt1"      :   "Nombre de questions : ",
    "opt2"      :   "Nombre d'essais : ",
    "label2"    :   ["un","deux"],
    "opt3"      :   "Temps pour réaliser l'exercice (en secondes)  : ",
	"inferieur" :   "Attention! Il n'y a pas assez de blocs!",
	"superieur" :   "Attention! Il n'y a pas assez de place pour tous ces blocs!",
	"egal" :        "Ok,mais tu peux construire la barrière avec moins de blocs...",
	"fini":			"Temps dépassé !",
    "opt4"      :   "Largeur des blocs (min;max):",
    "opt5"      :   "Largeur de la porte (min;max):",
    "opt7"      :   "Nombre de blocs(min;max):",
    "opt6"      :   "Reste en % de la largeur des blocs(min;max):"
}